…
#แปลงหน่วยของ priceUK จากปอนด์สเตอร์ลิงเป็น priceGermany
priceUK <- priceUK*1.19 	#62415.34 ยูโร

priceUK - priceGermany 	    #4098.725 ยูโร
```
**Answer 4** : ราคาเฉลี่ยของรถในประเทศอังกฤษมีราคาสูงกว่าประเทศเยอรมัน 4,098.725 ยูโร

### 5.) ยิ่งความจุมากเท่าใด ความสามารถในการชาร์จพลังงานยิ่งเร็วขึ้นจริงไหม?
Code
```ruby
EV %>% select(`Battery EV (kWh)`,`FastChargeSpeed(km/h)`)
```
Result
```
# A tibble: 179 x 2
   `Battery EV (kWh)` `FastChargeSpeed(km/h)`
                <dbl>                   <dbl>
 1              200                       920
 2               90                       680
 3               83.7                     860
 4               83.7                     790
 5              200                       710
 6              110                      1380
 7               90                       830
 8               83.7                     840
 9               76                       790
10               85                       810
# ... with 169 more rows
```
…
