…
### Package `forcats`
- `fct_infreq()` : ใช้การจัดลำดับข้อมูลตามความถี่
```
superstore %>% mutate(state = fct_infreq(State)) %>% count(state)
```


## Part 3: Transform data with dplyr and finding insight the data
1. แสดงจำนวนคนสั่งของในแต่ละเมือง
```
superstore_sale %>% group_by(City) %>% summarise("total" = length(City))
```
Result:
```
# A tibble: 529 x 2
   City        total
   <chr>       <int>
 1 Aberdeen        1
 2 Abilene         1
 3 Akron          20
 4 Albuquerque    14
 5 Alexandria     16
 6 Allen           4
 7 Allentown       7
 8 Altoona         2
 9 Amarillo       10
10 Anaheim        19
# ... with 519 more rows
```
…
