…
Explain :
- `filter` , speak easily, work as same as WHERE in SQL syntax. It work as filtering / choosing in data that match which the condition.
- In this example, we choose the data which its type is "ebook" only

----------------------------

- `rename` from dplyr for renaming the column
```
#renaming column
#Eg: change column "Book_title" into "Title"
Books %>% rename("Title" = Book_title)
```
Answer:
```
# A tibble: 271 x 7
   Rating Reviews Title              Description            Number_Of_Pages Type   Price
    <dbl>   <dbl> <chr>              <chr>                            <dbl> <fct>  <dbl>
 1   4.17    3829 The Elements of S~ "This style manual of~             105 Hardc~  9.32
 2   4.01    1406 The Information: ~ "James Gleick, the au~             527 Hardc~ 11   
 3   3.33       0 Responsive Web De~ "In Responsive Web De~              50 Kindl~ 11.3 
 4   3.97    1658 Ghost in the Wire~ "If they were a hall ~             393 Hardc~ 12.9 
 5   4.06    1325 How Google Works   "Both Eric Schmidt an~             305 Kindl~ 13.2 
 6   3.84     117 The Meme Machine   "What is a meme? Firs~             288 Paper~ 14.2 
 7   4.09    5938 Start with Why: H~ "Why do you do what y~             256 Hardc~ 14.2 
 8   4.15    1817 Algorithms to Liv~ "A fascinating explor~             368 Hardc~ 14.4 
 9   3.87    2093 Weapons of Math D~ "A former Wall Street~             259 Hardc~ 14.5 
10   4.62       0 ZX Spectrum Games~ "This book is ideal f~             128 Paper~ 14.6 
# ... with 261 more rows
```
…
----------------------------

- `arrange` form dplyr for arranging order
- `desc` from dplyr for declaring descending order inside arrange
```
#Arranging order
Books %>% arrange(desc(Rating))
```
Answer:
```
# A tibble: 271 x 7
   Rating Reviews Book_title           Description           Number_Of_Pages Type  Price
    <dbl>   <dbl> <chr>                <chr>                           <dbl> <fct> <dbl>
 1   5          0 Your First App: Nod~ "A tutorial for real~             317 ebook  25.9
 2   4.77       4 The Art of Computer~ "\"The bible of all ~            3168 Hard~ 220. 
 3   4.72     362 Designing Data-Inte~ "Want to know how th~             616 Pape~  45.6
 4   4.67       1 Build Web Applicati~ "This book is primar~             372 Pape~  42.3
 5   4.67      78 Fluent Python: Clea~ "Python's simplicity~             792 Pape~  64.1
 6   4.62       0 ZX Spectrum Games C~ "This book is ideal ~             128 Pape~  14.6
 7   4.62      28 The Linux Programmi~ "The Linux Programmi~            1506 Hard~  46.4
 8   4.58      58 CLR via C# (Develop~ "Dig deep and master~             863 Pape~  66.3
 9   4.54      52 The Elements of Com~ "This book is based ~             325 Hard~  41.3
10   4.54     171 Practical Object Or~ "The Complete Guide ~             247 Pape~  50.1
# ... with 261 more rows
```
…
