…
2. เลือกดูข้อมูลที่เกี่ยวกับสินค้าทั้งหมดที่เคยถูกสั่งซื้อในชุดข้อมูลนี้ พร้อมตัดข้อมูลที่ซ้ำกันออก
```
Orders %>% select(`Product ID`,Category,`Sub-Category`,`Product Name`) %>% distinct()
```

Result:
```
# A tibble: 1,893 x 4
   `Product ID`    Category        `Sub-Category` `Product Name`                                                  
   <chr>           <fct>           <fct>          <chr>                                                           
 1 FUR-BO-10001798 Furniture       Bookcases      Bush Somerset Collection Bookcase                               
 2 FUR-CH-10000454 Furniture       Chairs         Hon Deluxe Fabric Upholstered Stacking Chairs, Rounded Back     
 3 OFF-LA-10000240 Office Supplies Labels         Self-Adhesive Address Labels for Typewriters by Universal       
 4 FUR-TA-10000577 Furniture       Tables         Bretford CR4500 Series Slim Rectangular Table                   
 5 OFF-ST-10000760 Office Supplies Storage        Eldon Fold 'N Roll Cart System                                  
 6 FUR-FU-10001487 Furniture       Furnishings    Eldon Expressions Wood and Plastic Desk Accessories, Cherry Wood
 7 OFF-AR-10002833 Office Supplies Art            Newell 322                                                      
 8 TEC-PH-10002275 Technology      Phones         Mitel 5320 IP Phone VoIP phone                                  
 9 OFF-BI-10003910 Office Supplies Binders        DXL Angle-View Binders with Locking Rings by Samsill            
10 OFF-AP-10002892 Office Supplies Appliances     Belkin F5C206VTEL 6 Outlet Surge                                
# ... with 1,883 more rows
```
…
//Explain
- อันดับ 1 : ภาคตะวันตกของประเทศสหรัฐมียอดรวมราคาสั่งซื้อมากที่สุด คือ 710,220 ดอลลาร์สหรัฐ
- อันดับ 2 : ภาคตะวันออกของประเทศสหรัฐมียอดรวมราคาสั่งซื้อ 669,519 ดอลลาร์สหรัฐ
- อันดับ 3 : ภาคกลางของประเทศสหรัฐมียอดรวมราคาสั่งซื้อ 492,647 ดอลลาร์สหรัฐ
- อันดับ 4 : ภาคใต้ออกของประเทศสหรัฐมียอดรวมราคาสั่งซื้อ 389,151 ดอลลาร์สหรัฐ
-------

4. ลูกค้าคนใดมีการสั่งซื้อสินค้าแบบ First Class บ่อยที่สุด
```
Orders %>% filter(`Ship Mode`=="First Class") %>% group_by(`Customer Name`) %>% tally(sort = TRUE)
```

Result:
```
# A tibble: 490 x 2
   `Customer Name`     n
   <chr>           <int>
 1 Clytie Kelty       14
 2 Dean percer        13
 3 Kelly Lampkin      11
 4 Matt Connell       10
 5 Naresj Patel       10
 6 Pamela Stobb       10
 7 Adam Hart           9
 8 Adrian Hane         9
 9 Darrin Sayre        9
10 Erin Smith          9
# ... with 480 more rows
```
…
